…
    crashes%>%
      filter(`Month` == "08", `Crash Severity` == "Fatal", `Travel Direction` == "Eastbound (EB)")%>%
      group_by(Day)%>%
      summarise(n = n())

    ## # A tibble: 22 × 2
    ##    Day       n
    ##    <chr> <int>
    ##  1 01        1
    ##  2 02        1
    ##  3 03        1
    ##  4 04        2
    ##  5 05        2
    ##  6 06        2
    ##  7 08        1
    ##  8 09        1
    ##  9 10        4
    ## 10 11        2
    ## # … with 12 more rows

    crashes%>%
      filter(`Month` == "06", `Crash Severity` == "Fatal", `Travel Direction` == "Westbound (WB)")%>%
      group_by(Day)%>%
      summarise(n = n())

    ## # A tibble: 22 × 2
    ##    Day       n
    ##    <chr> <int>
    ##  1 01        2
    ##  2 02        2
    ##  3 03        1
    ##  4 04        3
    ##  5 05        1
    ##  6 06        1
    ##  7 07        2
    ##  8 08        2
    ##  9 09        3
    ## 10 10        1
    ## # … with 12 more rows
…
